(footprint "LEMO_connector" (version 20210126) (generator pcbnew) (layer "F.Cu")
  (tedit 5FFC4F43)
  (descr "EPL.00.250.NTN")
  (tags "Connector")
  (property "Sheetfile" "Analog_connections.kicad_sch")
  (property "Sheetname" "Analog_connections")
  (attr through_hole)
  (fp_text reference "REF**" (at 4.5342 -4.8389) (layer "F.SilkS")
    (effects (font (size 1.27 1.27) (thickness 0.254)))
    (tstamp 4b6e8276-9054-4591-911a-4afd5b5de2e4)
  )
  (fp_text value "BackBias_Conn" (at 10.01019 -0.1026) (layer "F.SilkS") hide
    (effects (font (size 1.27 1.27) (thickness 0.254)))
    (tstamp 15f4afb2-9164-404d-87cc-bdec878a46e0)
  )
  (fp_text user "${REFERENCE}" (at 10.01019 -0.1026) (layer "F.Fab")
    (effects (font (size 1.27 1.27) (thickness 0.254)))
    (tstamp 5ff888e4-e1a4-4a50-8f56-8d3cba2bf0db)
  )
  (fp_line (start 0 -3.5) (end 7 -3.5) (layer "F.SilkS") (width 0.254) (tstamp 0c68715d-e3b1-40a0-aad5-8e7a0de84ae7))
  (fp_line (start 17.5 -3.4) (end 7 -3.4) (layer "F.SilkS") (width 0.254) (tstamp 40467e8b-9e4b-477b-8fea-c2baf56d0ac8))
  (fp_line (start 0 3.5) (end 0 -3.5) (layer "F.SilkS") (width 0.254) (tstamp 6439e3dc-79fc-4ef6-93b4-2d2168e24bbd))
  (fp_line (start 17.5 3.4) (end 17.5 -3.4) (layer "F.SilkS") (width 0.254) (tstamp 6d3d331e-ab65-4be0-a191-f590f5059906))
  (fp_line (start 7 3.4) (end 17.5 3.4) (layer "F.SilkS") (width 0.254) (tstamp a2512d16-9e56-4771-b04e-cd8a58cce590))
  (fp_line (start 7 3.5) (end 0 3.5) (layer "F.SilkS") (width 0.254) (tstamp c51c5402-8a84-4e17-83af-b3d605e283d2))
  (fp_line (start 7 -3.5) (end 7 3.5) (layer "F.SilkS") (width 0.254) (tstamp d4ba3a62-e211-497f-a5b6-e710a985f4b1))
  (fp_line (start 7 -3.4) (end 17.5 -3.4) (layer "F.Fab") (width 0.254) (tstamp 4c7bb2ca-1c27-4518-ab41-1e35790e5a1c))
  (fp_line (start 7 -3.5) (end 7 3.5) (layer "F.Fab") (width 0.254) (tstamp 84ef411d-5fb8-4555-949a-893f4553bda4))
  (fp_line (start 0 3.5) (end 0 -3.5) (layer "F.Fab") (width 0.254) (tstamp b0c7df2b-68f3-444c-8d6a-ea369670f866))
  (fp_line (start 0 -3.5) (end 7 -3.5) (layer "F.Fab") (width 0.254) (tstamp b2843b04-5fa2-4757-b33b-7ca5a1bf24ad))
  (fp_line (start 17.5 3.4) (end 7 3.4) (layer "F.Fab") (width 0.254) (tstamp b2e7f027-52de-4fc5-9708-b10a27af4ca9))
  (fp_line (start 7 3.5) (end 0 3.5) (layer "F.Fab") (width 0.254) (tstamp d1110ce0-efb3-4a74-950e-acf593ccf439))
  (fp_line (start 17.5 -3.4) (end 17.5 3.4) (layer "F.Fab") (width 0.254) (tstamp f646a68b-64aa-4f95-9e62-371a9e242bbc))
  (pad "1" thru_hole circle (at 3.5 0) (locked) (size 1.45 1.45) (drill 0.9) (layers *.Cu *.Mask) (tstamp 82b3737a-6999-4050-bff0-4f9351f05070))
  (pad "2" thru_hole circle (at 6.04 2.54) (locked) (size 1.45 1.45) (drill 0.9) (layers *.Cu *.Mask) (tstamp 2c06ac7f-c0d0-4475-9518-d06f3125ca95))
  (pad "2" thru_hole circle (at 0.96 -2.54) (locked) (size 1.45 1.45) (drill 0.9) (layers *.Cu *.Mask) (tstamp 38a1196e-ed92-4b7a-b769-e89945fec31b))
  (pad "2" thru_hole circle (at 6.04 -2.54) (locked) (size 1.45 1.45) (drill 0.9) (layers *.Cu *.Mask) (tstamp 3de6b0b5-a474-48a3-b20b-0ab61e5d56c4))
  (pad "2" thru_hole circle (at 0.96 2.54) (locked) (size 1.45 1.45) (drill 0.9) (layers *.Cu *.Mask) (tstamp f44a1a9f-9644-4c12-9665-a227ec3e508d))
  (model "${KIPRJMOD}/lib/dmaps_components/dmaps_components.3dshapes/EPL.00.250.NTN.stp"
    (offset (xyz 0 0 3.5))
    (scale (xyz 1 1 1))
    (rotate (xyz 0 0 90))
  )
)
