(footprint "PinHeader_1x02_P2.54mm_Vertical" (version 20210126) (generator pcbnew) (layer "F.Cu")
  (tedit 59FED5CC)
  (descr "Through hole straight pin header, 1x02, 2.54mm pitch, single row")
  (tags "Through hole pin header THT 1x02 2.54mm single row")
  (property "Sheetfile" "Analog_connections.kicad_sch")
  (property "Sheetname" "Analog_connections")
  (attr through_hole)
  (fp_text reference "REF**" (at 0 -2.33 180) (layer "F.SilkS")
    (effects (font (size 1 1) (thickness 0.15)))
    (tstamp 1de5b1f8-eaf7-419b-b120-0ed38572a0a2)
  )
  (fp_text value "J_BackBias" (at 0 4.87 180) (layer "F.Fab")
    (effects (font (size 1 1) (thickness 0.15)))
    (tstamp 0f20a2e0-b6d2-417f-9fa3-3230401fb463)
  )
  (fp_text user "${REFERENCE}" (at 0 1.27 90) (layer "F.Fab")
    (effects (font (size 1 1) (thickness 0.15)))
    (tstamp 5a7df297-2763-4feb-b5a9-e0f1581454bd)
  )
  (fp_line (start -1.33 1.27) (end -1.33 3.87) (layer "F.SilkS") (width 0.12) (tstamp 4f90cca9-6777-4e64-b1ce-0a7ac8865328))
  (fp_line (start 1.33 1.27) (end 1.33 3.87) (layer "F.SilkS") (width 0.12) (tstamp 70ba82e2-8477-4906-9adb-4b9cde6f140f))
  (fp_line (start -1.33 0) (end -1.33 -1.33) (layer "F.SilkS") (width 0.12) (tstamp e11873f9-5e30-4f3e-b2d3-6117fd2df718))
  (fp_line (start -1.33 -1.33) (end 0 -1.33) (layer "F.SilkS") (width 0.12) (tstamp e36a879c-ab8c-43b7-9282-5542f3b05729))
  (fp_line (start -1.33 1.27) (end 1.33 1.27) (layer "F.SilkS") (width 0.12) (tstamp e4672665-810c-4fb0-84b8-89f8cb9a2f12))
  (fp_line (start -1.33 3.87) (end 1.33 3.87) (layer "F.SilkS") (width 0.12) (tstamp f440c464-0837-455c-a070-c98f4b2167cf))
  (fp_line (start -1.8 -1.8) (end -1.8 4.35) (layer "F.CrtYd") (width 0.05) (tstamp 1d5871f3-5027-4e55-bbbd-a3e89a6d8347))
  (fp_line (start -1.8 4.35) (end 1.8 4.35) (layer "F.CrtYd") (width 0.05) (tstamp 6ed72fb3-4873-4fca-8053-be1d2bf7758a))
  (fp_line (start 1.8 -1.8) (end -1.8 -1.8) (layer "F.CrtYd") (width 0.05) (tstamp 9e972668-eaeb-4bb8-8bb3-ee1f9dbe6645))
  (fp_line (start 1.8 4.35) (end 1.8 -1.8) (layer "F.CrtYd") (width 0.05) (tstamp ef502eba-4c73-463d-a9cd-0e5d5cca1dd0))
  (fp_line (start 1.27 -1.27) (end 1.27 3.81) (layer "F.Fab") (width 0.1) (tstamp 01966267-d721-4d3e-b20d-8bd7d431764c))
  (fp_line (start -0.635 -1.27) (end 1.27 -1.27) (layer "F.Fab") (width 0.1) (tstamp abf1ec9a-2602-47e5-8383-e20d098151fe))
  (fp_line (start -1.27 3.81) (end -1.27 -0.635) (layer "F.Fab") (width 0.1) (tstamp ac965d82-aa9f-42cc-b2c0-08c3180425f7))
  (fp_line (start 1.27 3.81) (end -1.27 3.81) (layer "F.Fab") (width 0.1) (tstamp cb490761-269f-4c93-9e4c-22d56d5c6d9e))
  (fp_line (start -1.27 -0.635) (end -0.635 -1.27) (layer "F.Fab") (width 0.1) (tstamp eb765744-5b03-46e8-9b1c-6e562f1e9926))
  (pad "1" thru_hole rect (at 0 0) (locked) (size 1.7 1.7) (drill 1) (layers *.Cu *.Mask) (tstamp 51144875-911f-42f1-9ab7-8545eaed9f1c))
  (pad "2" thru_hole oval (at 0 2.54) (locked) (size 1.7 1.7) (drill 1) (layers *.Cu *.Mask) (tstamp 330ffe49-f326-4395-90f9-3e89a669f953))
  (model "${KISYS3DMOD}/Connector_PinHeader_2.54mm.3dshapes/PinHeader_1x02_P2.54mm_Vertical.wrl"
    (offset (xyz 0 0 0))
    (scale (xyz 1 1 1))
    (rotate (xyz 0 0 0))
  )
)
