(footprint "samtec-ZA8H" (version 20210126) (generator pcbnew) (layer "F.Cu")
  (tedit 602F91F3)
  (fp_text reference "REF**" (at 9.975 -4.15 unlocked) (layer "F.SilkS")
    (effects (font (size 1 1) (thickness 0.15)))
    (tstamp 41f98aac-84e3-4c64-9434-63814f42f772)
  )
  (fp_text value "samtec-ZA8H" (at 10.575 -2.25 unlocked) (layer "F.Fab")
    (effects (font (size 1 1) (thickness 0.15)))
    (tstamp 88c99240-4391-4a1f-9384-a016358003e4)
  )
  (fp_circle (center 0 -0.6) (end 0.075 -0.65) (layer "F.SilkS") (width 0.12) (fill none) (tstamp c12d6702-d3c1-419f-a93f-968ebe9ccb31))
  (fp_circle (center 0 0) (end 1 0) (layer "Edge.Cuts") (width 0.12) (fill none) (tstamp 600cc47d-b583-42f8-a079-d6ac868a145c))
  (fp_circle (center 22.71 0) (end 23.71 0) (layer "Edge.Cuts") (width 0.12) (fill none) (tstamp 8a43c339-7eb0-487c-8f50-486601b2ba63))
  (pad "1" smd roundrect (at 1.588 -0.6 45) (size 0.522 0.522) (layers "F.Cu" "F.Paste" "F.Mask") (roundrect_rratio 0.25) (tstamp 94dc12ed-cdd1-406d-bec8-786643196ea2))
  (pad "2" smd roundrect (at 2.388 -0.6 45) (size 0.522 0.522) (layers "F.Cu" "F.Paste" "F.Mask") (roundrect_rratio 0.25) (tstamp 6785c60f-cb99-44e6-bc1e-fd2bde8891f9))
  (pad "3" smd roundrect (at 3.188 -0.6 45) (size 0.522 0.522) (layers "F.Cu" "F.Paste" "F.Mask") (roundrect_rratio 0.25) (tstamp 8878e163-c6e3-4558-8944-51157c8841ef))
  (pad "4" smd roundrect (at 3.988 -0.6 45) (size 0.522 0.522) (layers "F.Cu" "F.Paste" "F.Mask") (roundrect_rratio 0.25) (tstamp a2b88705-b7af-42ee-a827-63ac4d1c9c68))
  (pad "5" smd roundrect (at 4.788 -0.6 45) (size 0.522 0.522) (layers "F.Cu" "F.Paste" "F.Mask") (roundrect_rratio 0.25) (tstamp 2ffdd1f3-a8af-494e-b598-a2b850d43aad))
  (pad "6" smd roundrect (at 5.588 -0.6 45) (size 0.522 0.522) (layers "F.Cu" "F.Paste" "F.Mask") (roundrect_rratio 0.25) (tstamp 5609b10b-e674-4f8f-b730-8cda69cbce60))
  (pad "7" smd roundrect (at 6.388 -0.6 45) (size 0.522 0.522) (layers "F.Cu" "F.Paste" "F.Mask") (roundrect_rratio 0.25) (tstamp 68a3f0e2-f955-4915-b6c1-9e0403dd0d3f))
  (pad "8" smd roundrect (at 7.188 -0.6 45) (size 0.522 0.522) (layers "F.Cu" "F.Paste" "F.Mask") (roundrect_rratio 0.25) (tstamp 31f9e570-5d2c-4306-a291-5d5ba048799c))
  (pad "9" smd roundrect (at 7.988 -0.6 45) (size 0.522 0.522) (layers "F.Cu" "F.Paste" "F.Mask") (roundrect_rratio 0.25) (tstamp 1c765ca2-945e-4c76-abaf-b2236e8ca93c))
  (pad "10" smd roundrect (at 8.788 -0.6 45) (size 0.522 0.522) (layers "F.Cu" "F.Paste" "F.Mask") (roundrect_rratio 0.25) (tstamp 42381406-906c-455c-b8fe-463f90e460e3))
  (pad "11" smd roundrect (at 9.588 -0.6 45) (size 0.522 0.522) (layers "F.Cu" "F.Paste" "F.Mask") (roundrect_rratio 0.25) (tstamp 0bc82e95-89f9-4405-ae68-62fb3a0f6261))
  (pad "12" smd roundrect (at 10.388 -0.6 45) (size 0.522 0.522) (layers "F.Cu" "F.Paste" "F.Mask") (roundrect_rratio 0.25) (tstamp a2f3d0ae-23c8-425c-a9cc-bd107ace4415))
  (pad "13" smd roundrect (at 11.188 -0.6 45) (size 0.522 0.522) (layers "F.Cu" "F.Paste" "F.Mask") (roundrect_rratio 0.25) (tstamp a8b6e953-8fb3-448d-b2d1-b09c04dd88a0))
  (pad "14" smd roundrect (at 11.988 -0.6 45) (size 0.522 0.522) (layers "F.Cu" "F.Paste" "F.Mask") (roundrect_rratio 0.25) (tstamp 3a91c37d-b10f-48c5-aaca-bab28bee4bbd))
  (pad "15" smd roundrect (at 12.788 -0.6 45) (size 0.522 0.522) (layers "F.Cu" "F.Paste" "F.Mask") (roundrect_rratio 0.25) (tstamp ecc7a4e8-f0cc-470f-8cf7-aec89f8525c9))
  (pad "16" smd roundrect (at 13.588 -0.6 45) (size 0.522 0.522) (layers "F.Cu" "F.Paste" "F.Mask") (roundrect_rratio 0.25) (tstamp 98200abb-664a-411a-a3c1-c22249228fa0))
  (pad "17" smd roundrect (at 14.388 -0.6 45) (size 0.522 0.522) (layers "F.Cu" "F.Paste" "F.Mask") (roundrect_rratio 0.25) (tstamp 48289a02-001a-4e40-91ad-a1781b634bdf))
  (pad "18" smd roundrect (at 15.188 -0.6 45) (size 0.522 0.522) (layers "F.Cu" "F.Paste" "F.Mask") (roundrect_rratio 0.25) (tstamp 47f9e139-94e9-4185-91a9-d25fa6182d8e))
  (pad "19" smd roundrect (at 15.988 -0.6 45) (size 0.522 0.522) (layers "F.Cu" "F.Paste" "F.Mask") (roundrect_rratio 0.25) (tstamp beb6e437-56c8-4ee2-82cc-b64777cd14a8))
  (pad "20" smd roundrect (at 16.788 -0.6 45) (size 0.522 0.522) (layers "F.Cu" "F.Paste" "F.Mask") (roundrect_rratio 0.25) (tstamp 65273458-6176-49ff-908a-f70562f882ef))
  (pad "21" smd roundrect (at 17.588 -0.6 45) (size 0.522 0.522) (layers "F.Cu" "F.Paste" "F.Mask") (roundrect_rratio 0.25) (tstamp c8d33432-f475-42a2-acae-1823eb7440fd))
  (pad "22" smd roundrect (at 18.388 -0.6 45) (size 0.522 0.522) (layers "F.Cu" "F.Paste" "F.Mask") (roundrect_rratio 0.25) (tstamp b3354c72-f8de-492b-aa64-7c07fafbe355))
  (pad "23" smd roundrect (at 19.188 -0.6 45) (size 0.522 0.522) (layers "F.Cu" "F.Paste" "F.Mask") (roundrect_rratio 0.25) (tstamp a40c1fb7-8612-4e96-aacf-f3248f223b6d))
  (pad "24" smd roundrect (at 19.988 -0.6 45) (size 0.522 0.522) (layers "F.Cu" "F.Paste" "F.Mask") (roundrect_rratio 0.25) (tstamp 5d6dd26d-d4a1-48aa-aac0-3bfd05502e20))
  (pad "25" smd roundrect (at 1.588 0.2 45) (size 0.522 0.522) (layers "F.Cu" "F.Paste" "F.Mask") (roundrect_rratio 0.25) (tstamp 3b46996c-6ce7-455e-85b2-64a4e288100c))
  (pad "26" smd roundrect (at 2.388 0.2 45) (size 0.522 0.522) (layers "F.Cu" "F.Paste" "F.Mask") (roundrect_rratio 0.25) (tstamp 2e48064e-139a-4288-a2af-40a8902f40d8))
  (pad "27" smd roundrect (at 3.188 0.2 45) (size 0.522 0.522) (layers "F.Cu" "F.Paste" "F.Mask") (roundrect_rratio 0.25) (tstamp 7317ea78-8475-4d5c-b2d5-9ca15d8bf837))
  (pad "28" smd roundrect (at 3.988 0.2 45) (size 0.522 0.522) (layers "F.Cu" "F.Paste" "F.Mask") (roundrect_rratio 0.25) (tstamp 1dcf1631-be8d-4367-9fb5-f194ff4e5ee6))
  (pad "29" smd roundrect (at 4.788 0.2 45) (size 0.522 0.522) (layers "F.Cu" "F.Paste" "F.Mask") (roundrect_rratio 0.25) (tstamp 245eb909-faaa-4bdc-b28b-e9786a6e0faf))
  (pad "30" smd roundrect (at 5.588 0.2 45) (size 0.522 0.522) (layers "F.Cu" "F.Paste" "F.Mask") (roundrect_rratio 0.25) (tstamp 6d487dd1-324b-4b67-9383-7319a4ab1f1d))
  (pad "31" smd roundrect (at 6.388 0.2 45) (size 0.522 0.522) (layers "F.Cu" "F.Paste" "F.Mask") (roundrect_rratio 0.25) (tstamp f9bc35ec-7d5e-4084-be2f-de2c11d7ab35))
  (pad "32" smd roundrect (at 7.188 0.2 45) (size 0.522 0.522) (layers "F.Cu" "F.Paste" "F.Mask") (roundrect_rratio 0.25) (tstamp ec3d576f-dc14-43f0-8112-b5f106501083))
  (pad "33" smd roundrect (at 7.988 0.2 45) (size 0.522 0.522) (layers "F.Cu" "F.Paste" "F.Mask") (roundrect_rratio 0.25) (tstamp 1190f2da-d0b9-483d-ba9a-1253dadb8854))
  (pad "34" smd roundrect (at 8.788 0.2 45) (size 0.522 0.522) (layers "F.Cu" "F.Paste" "F.Mask") (roundrect_rratio 0.25) (tstamp 4649985a-ae0c-4283-93f9-6eeaa68f7b2b))
  (pad "35" smd roundrect (at 9.588 0.2 45) (size 0.522 0.522) (layers "F.Cu" "F.Paste" "F.Mask") (roundrect_rratio 0.25) (tstamp c4c6faf5-f362-4971-8c83-9bc497ab25e8))
  (pad "36" smd roundrect (at 10.388 0.2 45) (size 0.522 0.522) (layers "F.Cu" "F.Paste" "F.Mask") (roundrect_rratio 0.25) (tstamp c1e5ad86-0166-4a6c-8c71-26131ff0b98e))
  (pad "37" smd roundrect (at 11.188 0.2 45) (size 0.522 0.522) (layers "F.Cu" "F.Paste" "F.Mask") (roundrect_rratio 0.25) (tstamp 18b1ceaf-685c-477b-a344-2020977ee28c))
  (pad "38" smd roundrect (at 11.988 0.2 45) (size 0.522 0.522) (layers "F.Cu" "F.Paste" "F.Mask") (roundrect_rratio 0.25) (tstamp 1433ddbc-1219-494f-8c9f-6034fbfea7af))
  (pad "39" smd roundrect (at 12.788 0.2 45) (size 0.522 0.522) (layers "F.Cu" "F.Paste" "F.Mask") (roundrect_rratio 0.25) (tstamp 492e3d56-fc9d-430d-9569-a03d7f485369))
  (pad "40" smd roundrect (at 13.588 0.2 45) (size 0.522 0.522) (layers "F.Cu" "F.Paste" "F.Mask") (roundrect_rratio 0.25) (tstamp dd0c2aa0-ddf2-4376-9072-7df099b50c79))
  (pad "41" smd roundrect (at 14.388 0.2 45) (size 0.522 0.522) (layers "F.Cu" "F.Paste" "F.Mask") (roundrect_rratio 0.25) (tstamp c90fa308-da30-43b8-8f60-aeeaf93b3b91))
  (pad "42" smd roundrect (at 15.188 0.2 45) (size 0.522 0.522) (layers "F.Cu" "F.Paste" "F.Mask") (roundrect_rratio 0.25) (tstamp 98a76918-6d71-4a06-8786-dc04ddf1e3f6))
  (pad "43" smd roundrect (at 15.988 0.2 45) (size 0.522 0.522) (layers "F.Cu" "F.Paste" "F.Mask") (roundrect_rratio 0.25) (tstamp 2a459c29-377f-4a30-9e13-66cd445cc154))
  (pad "44" smd roundrect (at 16.788 0.2 45) (size 0.522 0.522) (layers "F.Cu" "F.Paste" "F.Mask") (roundrect_rratio 0.25) (tstamp cc6a146d-1607-4a62-8e7b-790c47890885))
  (pad "45" smd roundrect (at 17.588 0.2 45) (size 0.522 0.522) (layers "F.Cu" "F.Paste" "F.Mask") (roundrect_rratio 0.25) (tstamp 429336c1-04e4-47a0-b362-21496b345fc2))
  (pad "46" smd roundrect (at 18.388 0.2 45) (size 0.522 0.522) (layers "F.Cu" "F.Paste" "F.Mask") (roundrect_rratio 0.25) (tstamp fe92ea79-9cc1-47a6-a8fe-7dd35c83213c))
  (pad "47" smd roundrect (at 19.188 0.2 45) (size 0.522 0.522) (layers "F.Cu" "F.Paste" "F.Mask") (roundrect_rratio 0.25) (tstamp afb8cac7-7a83-4de4-8efd-cb53f15c4bf8))
  (pad "48" smd roundrect (at 19.988 0.2 45) (size 0.522 0.522) (layers "F.Cu" "F.Paste" "F.Mask") (roundrect_rratio 0.25) (tstamp 2a72d8ee-5e80-432d-83a2-4f29a625c8b1))
  (pad "49" smd roundrect (at 1.588 1 45) (size 0.522 0.522) (layers "F.Cu" "F.Paste" "F.Mask") (roundrect_rratio 0.25) (tstamp 5e85cc43-9720-4e32-97a8-a76bca2dbb2d))
  (pad "50" smd roundrect (at 2.388 1 45) (size 0.522 0.522) (layers "F.Cu" "F.Paste" "F.Mask") (roundrect_rratio 0.25) (tstamp b3dc2c1a-69e8-46b4-aefa-bb3a6e683343))
  (pad "51" smd roundrect (at 3.188 1 45) (size 0.522 0.522) (layers "F.Cu" "F.Paste" "F.Mask") (roundrect_rratio 0.25) (tstamp 0d090487-909a-4d1f-85e1-6fe8246f4f15))
  (pad "52" smd roundrect (at 3.988 1 45) (size 0.522 0.522) (layers "F.Cu" "F.Paste" "F.Mask") (roundrect_rratio 0.25) (tstamp 01eb8d32-e9d1-4f09-83f3-1e6267c9323f))
  (pad "53" smd roundrect (at 4.788 1 45) (size 0.522 0.522) (layers "F.Cu" "F.Paste" "F.Mask") (roundrect_rratio 0.25) (tstamp 7c983968-e679-4126-aafb-c3908494d60f))
  (pad "54" smd roundrect (at 5.588 1 45) (size 0.522 0.522) (layers "F.Cu" "F.Paste" "F.Mask") (roundrect_rratio 0.25) (tstamp b112860a-f010-46a6-94dd-41d581c4fbca))
  (pad "55" smd roundrect (at 6.388 1 45) (size 0.522 0.522) (layers "F.Cu" "F.Paste" "F.Mask") (roundrect_rratio 0.25) (tstamp ddc8c024-7983-4cf7-bff7-b719cf6cbd2c))
  (pad "56" smd roundrect (at 7.188 1 45) (size 0.522 0.522) (layers "F.Cu" "F.Paste" "F.Mask") (roundrect_rratio 0.25) (tstamp 54ffcfdd-693e-4654-917c-51bd63f7c7ae))
  (pad "57" smd roundrect (at 7.988 1 45) (size 0.522 0.522) (layers "F.Cu" "F.Paste" "F.Mask") (roundrect_rratio 0.25) (tstamp 22ef9bb0-e983-4749-b549-34f86b012b94))
  (pad "58" smd roundrect (at 8.788 1 45) (size 0.522 0.522) (layers "F.Cu" "F.Paste" "F.Mask") (roundrect_rratio 0.25) (tstamp db5dcde7-ab35-4db7-8ccd-d44c7e0429fa))
  (pad "59" smd roundrect (at 9.588 1 45) (size 0.522 0.522) (layers "F.Cu" "F.Paste" "F.Mask") (roundrect_rratio 0.25) (tstamp 694c8345-38ed-4f29-ac72-4c29335fc6f6))
  (pad "60" smd roundrect (at 10.388 1 45) (size 0.522 0.522) (layers "F.Cu" "F.Paste" "F.Mask") (roundrect_rratio 0.25) (tstamp 170dcf5a-d7a0-4a55-93e0-7e7625ad73bc))
  (pad "61" smd roundrect (at 11.188 1 45) (size 0.522 0.522) (layers "F.Cu" "F.Paste" "F.Mask") (roundrect_rratio 0.25) (tstamp 4cddbb10-4886-4d9b-983d-517d71510714))
  (pad "62" smd roundrect (at 11.988 1 45) (size 0.522 0.522) (layers "F.Cu" "F.Paste" "F.Mask") (roundrect_rratio 0.25) (tstamp 9c134772-5caf-42e4-8c97-17eaa290bcbb))
  (pad "63" smd roundrect (at 12.788 1 45) (size 0.522 0.522) (layers "F.Cu" "F.Paste" "F.Mask") (roundrect_rratio 0.25) (tstamp e8e8df11-2e03-44f9-9327-656fa5bcd015))
  (pad "64" smd roundrect (at 13.588 1 45) (size 0.522 0.522) (layers "F.Cu" "F.Paste" "F.Mask") (roundrect_rratio 0.25) (tstamp 793ca53c-302a-4e10-8d73-382f4335cccc))
  (pad "65" smd roundrect (at 14.388 1 45) (size 0.522 0.522) (layers "F.Cu" "F.Paste" "F.Mask") (roundrect_rratio 0.25) (tstamp 8e176686-1a37-43d2-94f7-a9ff48b86dc7))
  (pad "66" smd roundrect (at 15.188 1 45) (size 0.522 0.522) (layers "F.Cu" "F.Paste" "F.Mask") (roundrect_rratio 0.25) (tstamp 339eb804-1633-48cc-9d46-b2fa35588524))
  (pad "67" smd roundrect (at 15.988 1 45) (size 0.522 0.522) (layers "F.Cu" "F.Paste" "F.Mask") (roundrect_rratio 0.25) (tstamp 461219fc-2e58-4e99-8dd6-01308ef02760))
  (pad "68" smd roundrect (at 16.788 1 45) (size 0.522 0.522) (layers "F.Cu" "F.Paste" "F.Mask") (roundrect_rratio 0.25) (tstamp 51a84c0f-0947-4bc6-84a7-4901aa0817b5))
  (pad "69" smd roundrect (at 17.588 1 45) (size 0.522 0.522) (layers "F.Cu" "F.Paste" "F.Mask") (roundrect_rratio 0.25) (tstamp fbc4faa5-6a9b-4598-8c34-64251f0c2ea8))
  (pad "70" smd roundrect (at 18.388 1 45) (size 0.522 0.522) (layers "F.Cu" "F.Paste" "F.Mask") (roundrect_rratio 0.25) (tstamp dcf4b0ee-68e7-4c90-80cd-f89c2206f3f7))
  (pad "71" smd roundrect (at 19.188 1 45) (size 0.522 0.522) (layers "F.Cu" "F.Paste" "F.Mask") (roundrect_rratio 0.25) (tstamp 9a944657-7286-4610-81da-bc6a460fc058))
  (pad "72" smd roundrect (at 19.988 1 45) (size 0.522 0.522) (layers "F.Cu" "F.Paste" "F.Mask") (roundrect_rratio 0.25) (tstamp 34662bdc-ddc0-4398-858b-afbd7fecb116))
  (pad "73" smd roundrect (at 1.588 1.8 45) (size 0.522 0.522) (layers "F.Cu" "F.Paste" "F.Mask") (roundrect_rratio 0.25) (tstamp 8eb23fba-15ab-49f0-aad2-9dd69b507b99))
  (pad "74" smd roundrect (at 2.388 1.8 45) (size 0.522 0.522) (layers "F.Cu" "F.Paste" "F.Mask") (roundrect_rratio 0.25) (tstamp 1d8ede9d-c3b6-4899-915c-5026b229f788))
  (pad "75" smd roundrect (at 3.188 1.8 45) (size 0.522 0.522) (layers "F.Cu" "F.Paste" "F.Mask") (roundrect_rratio 0.25) (tstamp c3e979e8-3a5a-4949-9317-228173720398))
  (pad "76" smd roundrect (at 3.988 1.8 45) (size 0.522 0.522) (layers "F.Cu" "F.Paste" "F.Mask") (roundrect_rratio 0.25) (tstamp f61acd9e-032c-484d-81b2-e01343ff78be))
  (pad "77" smd roundrect (at 4.788 1.8 45) (size 0.522 0.522) (layers "F.Cu" "F.Paste" "F.Mask") (roundrect_rratio 0.25) (tstamp b4d9ea38-29f9-4145-aca9-d6e7d2dc9211))
  (pad "78" smd roundrect (at 5.588 1.8 45) (size 0.522 0.522) (layers "F.Cu" "F.Paste" "F.Mask") (roundrect_rratio 0.25) (tstamp 312c3ee5-ad79-497c-b73f-7a1b4b2edb71))
  (pad "79" smd roundrect (at 6.388 1.8 45) (size 0.522 0.522) (layers "F.Cu" "F.Paste" "F.Mask") (roundrect_rratio 0.25) (tstamp 10b919e5-5430-4841-a333-ca420e4d062a))
  (pad "80" smd roundrect (at 7.188 1.8 45) (size 0.522 0.522) (layers "F.Cu" "F.Paste" "F.Mask") (roundrect_rratio 0.25) (tstamp 7aa58284-03a7-45a9-9b54-914295b244ff))
  (pad "81" smd roundrect (at 7.988 1.8 45) (size 0.522 0.522) (layers "F.Cu" "F.Paste" "F.Mask") (roundrect_rratio 0.25) (tstamp e93e58c1-dc68-4153-a14f-a0415980ec30))
  (pad "82" smd roundrect (at 8.788 1.8 45) (size 0.522 0.522) (layers "F.Cu" "F.Paste" "F.Mask") (roundrect_rratio 0.25) (tstamp 17a7201c-bb73-4d8c-8f3a-b6946f5d2bd0))
  (pad "83" smd roundrect (at 9.588 1.8 45) (size 0.522 0.522) (layers "F.Cu" "F.Paste" "F.Mask") (roundrect_rratio 0.25) (tstamp 0460f36f-0398-43c8-86f5-7a73657f9fd2))
  (pad "84" smd roundrect (at 10.388 1.8 45) (size 0.522 0.522) (layers "F.Cu" "F.Paste" "F.Mask") (roundrect_rratio 0.25) (tstamp 6bd1e634-4512-40f5-b232-31cbdf90d63d))
  (pad "85" smd roundrect (at 11.188 1.8 45) (size 0.522 0.522) (layers "F.Cu" "F.Paste" "F.Mask") (roundrect_rratio 0.25) (tstamp 7cc0841d-9e89-4211-b7ba-efe4386c8a9a))
  (pad "86" smd roundrect (at 11.988 1.8 45) (size 0.522 0.522) (layers "F.Cu" "F.Paste" "F.Mask") (roundrect_rratio 0.25) (tstamp 0a8ee816-48da-473f-8191-50dba9028285))
  (pad "87" smd roundrect (at 12.788 1.8 45) (size 0.522 0.522) (layers "F.Cu" "F.Paste" "F.Mask") (roundrect_rratio 0.25) (tstamp ec46709c-767b-48c5-8e27-997bb7f5483e))
  (pad "88" smd roundrect (at 13.588 1.8 45) (size 0.522 0.522) (layers "F.Cu" "F.Paste" "F.Mask") (roundrect_rratio 0.25) (tstamp ed7ce0af-d98b-41a1-a069-a32ade340f75))
  (pad "89" smd roundrect (at 14.388 1.8 45) (size 0.522 0.522) (layers "F.Cu" "F.Paste" "F.Mask") (roundrect_rratio 0.25) (tstamp 7036db7a-8df0-49ea-aecb-c8b839e28c1f))
  (pad "90" smd roundrect (at 15.188 1.8 45) (size 0.522 0.522) (layers "F.Cu" "F.Paste" "F.Mask") (roundrect_rratio 0.25) (tstamp 26ebba5c-1374-40ef-a157-cd2e21432bdf))
  (pad "91" smd roundrect (at 15.988 1.8 45) (size 0.522 0.522) (layers "F.Cu" "F.Paste" "F.Mask") (roundrect_rratio 0.25) (tstamp 37a799bd-6c36-4b00-9c14-909aebb61f14))
  (pad "92" smd roundrect (at 16.788 1.8 45) (size 0.522 0.522) (layers "F.Cu" "F.Paste" "F.Mask") (roundrect_rratio 0.25) (tstamp d0eecb46-1c78-4a26-9b27-4318ff4991a5))
  (pad "93" smd roundrect (at 17.588 1.8 45) (size 0.522 0.522) (layers "F.Cu" "F.Paste" "F.Mask") (roundrect_rratio 0.25) (tstamp 4cb83320-ecca-46f7-be42-e6ce4e0ab995))
  (pad "94" smd roundrect (at 18.388 1.8 45) (size 0.522 0.522) (layers "F.Cu" "F.Paste" "F.Mask") (roundrect_rratio 0.25) (tstamp f47e9481-9a51-44ae-8516-1be980803b14))
  (pad "95" smd roundrect (at 19.188 1.8 45) (size 0.522 0.522) (layers "F.Cu" "F.Paste" "F.Mask") (roundrect_rratio 0.25) (tstamp c6cdb1a4-314e-498d-bc2a-42357b5267b1))
  (pad "96" smd roundrect (at 19.988 1.8 45) (size 0.522 0.522) (layers "F.Cu" "F.Paste" "F.Mask") (roundrect_rratio 0.25) (tstamp 1c46f220-1593-48d7-878e-1e52c5096495))
)
