(module tsi_mpw_chip_f_wider_pads (layer F.Cu) (tedit 60250362)
  (solder_mask_margin -1)
  (solder_paste_ratio -0.5)
  (clearance 0.1)
  (attr virtual)
  (fp_text reference REF** (at -9.275 -9.75) (layer F.SilkS)
    (effects (font (size 1 1) (thickness 0.15)))
  )
  (fp_text value tsi_mpw_chip_f_wider_pads (at 1.25 -10.5) (layer F.Fab)
    (effects (font (size 1 1) (thickness 0.15)))
  )
  (fp_line (start -6.65 0.7) (end -6.65 0.2) (layer F.Cu) (width 0.1))
  (fp_line (start -6.9 0.45) (end -6.4 0.45) (layer F.Cu) (width 0.1))
  (fp_line (start 6.75 1.45) (end 6.75 0.95) (layer F.Cu) (width 0.1))
  (fp_line (start 6.5 1.2) (end 7 1.2) (layer F.Cu) (width 0.1))
  (fp_line (start 5.1 5.65) (end 5.1 5.15) (layer F.Cu) (width 0.1))
  (fp_line (start 4.85 5.4) (end 5.35 5.4) (layer F.Cu) (width 0.1))
  (fp_line (start -5.05 5.5) (end -5.05 5) (layer F.Cu) (width 0.1))
  (fp_line (start -5.3 5.25) (end -4.8 5.25) (layer F.Cu) (width 0.1))
  (fp_line (start 2.7 -4.2) (end 2.2 -4.2) (layer F.Cu) (width 0.1))
  (fp_line (start -2.7 -4.2) (end -2.2 -4.2) (layer F.Cu) (width 0.1))
  (fp_poly (pts (xy 8.4 8.2) (xy -8.4 8.2) (xy -8.4 -5.4) (xy 8.4 -5.4)) (layer F.Mask) (width 0.1))
  (fp_poly (pts (xy 8.4 8.2) (xy -8.4 8.2) (xy -8.4 -5.4) (xy 8.4 -5.4)) (layer B.Mask) (width 0.1))
  (fp_line (start -2.5 -2.45) (end 2.5 -2.45) (layer Dwgs.User) (width 0.01))
  (fp_line (start 2.5 -2.45) (end 2.5 2.42) (layer Dwgs.User) (width 0.01))
  (fp_line (start 2.5 2.42) (end -2.5 2.42) (layer Dwgs.User) (width 0.01))
  (fp_line (start -2.5 -2.45) (end -2.5 2.42) (layer Dwgs.User) (width 0.01))
  (fp_line (start -2.475 -2.25) (end -2.4 -2.25) (layer Dwgs.User) (width 0.01))
  (fp_line (start -2.4 -2.25) (end -2.4 -2.175) (layer Dwgs.User) (width 0.01))
  (fp_line (start -2.4 -2.175) (end -2.475 -2.175) (layer Dwgs.User) (width 0.01))
  (fp_line (start -2.475 -2.25) (end -2.475 -2.175) (layer Dwgs.User) (width 0.01))
  (fp_line (start -2.4 -1.95) (end -2.4 -1.875) (layer Dwgs.User) (width 0.01))
  (fp_line (start -2.4 -1.875) (end -2.475 -1.875) (layer Dwgs.User) (width 0.01))
  (fp_line (start -2.475 -1.95) (end -2.4 -1.95) (layer Dwgs.User) (width 0.01))
  (fp_line (start -2.475 -1.95) (end -2.475 -1.875) (layer Dwgs.User) (width 0.01))
  (fp_line (start -2.4 -1.85) (end -2.4 -1.775) (layer Dwgs.User) (width 0.01))
  (fp_line (start -2.4 -1.75) (end -2.4 -1.675) (layer Dwgs.User) (width 0.01))
  (fp_line (start -2.4 -1.65) (end -2.4 -1.575) (layer Dwgs.User) (width 0.01))
  (fp_line (start -2.4 -1.55) (end -2.4 -1.475) (layer Dwgs.User) (width 0.01))
  (fp_line (start -2.4 -1.45) (end -2.4 -1.375) (layer Dwgs.User) (width 0.01))
  (fp_line (start -2.4 -1.35) (end -2.4 -1.275) (layer Dwgs.User) (width 0.01))
  (fp_line (start -2.4 -1.25) (end -2.4 -1.175) (layer Dwgs.User) (width 0.01))
  (fp_line (start -2.4 -1.15) (end -2.4 -1.075) (layer Dwgs.User) (width 0.01))
  (fp_line (start -2.4 -1.05) (end -2.4 -0.975) (layer Dwgs.User) (width 0.01))
  (fp_line (start -2.4 -0.95) (end -2.4 -0.875) (layer Dwgs.User) (width 0.01))
  (fp_line (start -2.4 -0.85) (end -2.4 -0.775) (layer Dwgs.User) (width 0.01))
  (fp_line (start -2.4 -1.775) (end -2.475 -1.775) (layer Dwgs.User) (width 0.01))
  (fp_line (start -2.4 -1.675) (end -2.475 -1.675) (layer Dwgs.User) (width 0.01))
  (fp_line (start -2.4 -1.575) (end -2.475 -1.575) (layer Dwgs.User) (width 0.01))
  (fp_line (start -2.4 -1.475) (end -2.475 -1.475) (layer Dwgs.User) (width 0.01))
  (fp_line (start -2.4 -1.375) (end -2.475 -1.375) (layer Dwgs.User) (width 0.01))
  (fp_line (start -2.4 -1.275) (end -2.475 -1.275) (layer Dwgs.User) (width 0.01))
  (fp_line (start -2.4 -1.175) (end -2.475 -1.175) (layer Dwgs.User) (width 0.01))
  (fp_line (start -2.4 -1.075) (end -2.475 -1.075) (layer Dwgs.User) (width 0.01))
  (fp_line (start -2.4 -0.975) (end -2.475 -0.975) (layer Dwgs.User) (width 0.01))
  (fp_line (start -2.4 -0.875) (end -2.475 -0.875) (layer Dwgs.User) (width 0.01))
  (fp_line (start -2.4 -0.775) (end -2.475 -0.775) (layer Dwgs.User) (width 0.01))
  (fp_line (start -2.475 -1.85) (end -2.4 -1.85) (layer Dwgs.User) (width 0.01))
  (fp_line (start -2.475 -1.75) (end -2.4 -1.75) (layer Dwgs.User) (width 0.01))
  (fp_line (start -2.475 -1.65) (end -2.4 -1.65) (layer Dwgs.User) (width 0.01))
  (fp_line (start -2.475 -1.55) (end -2.4 -1.55) (layer Dwgs.User) (width 0.01))
  (fp_line (start -2.475 -1.45) (end -2.4 -1.45) (layer Dwgs.User) (width 0.01))
  (fp_line (start -2.475 -1.35) (end -2.4 -1.35) (layer Dwgs.User) (width 0.01))
  (fp_line (start -2.475 -1.25) (end -2.4 -1.25) (layer Dwgs.User) (width 0.01))
  (fp_line (start -2.475 -1.15) (end -2.4 -1.15) (layer Dwgs.User) (width 0.01))
  (fp_line (start -2.475 -1.05) (end -2.4 -1.05) (layer Dwgs.User) (width 0.01))
  (fp_line (start -2.475 -0.95) (end -2.4 -0.95) (layer Dwgs.User) (width 0.01))
  (fp_line (start -2.475 -0.85) (end -2.4 -0.85) (layer Dwgs.User) (width 0.01))
  (fp_line (start -2.475 -1.85) (end -2.475 -1.775) (layer Dwgs.User) (width 0.01))
  (fp_line (start -2.475 -1.75) (end -2.475 -1.675) (layer Dwgs.User) (width 0.01))
  (fp_line (start -2.475 -1.65) (end -2.475 -1.575) (layer Dwgs.User) (width 0.01))
  (fp_line (start -2.475 -1.55) (end -2.475 -1.475) (layer Dwgs.User) (width 0.01))
  (fp_line (start -2.475 -1.45) (end -2.475 -1.375) (layer Dwgs.User) (width 0.01))
  (fp_line (start -2.475 -1.35) (end -2.475 -1.275) (layer Dwgs.User) (width 0.01))
  (fp_line (start -2.475 -1.25) (end -2.475 -1.175) (layer Dwgs.User) (width 0.01))
  (fp_line (start -2.475 -1.15) (end -2.475 -1.075) (layer Dwgs.User) (width 0.01))
  (fp_line (start -2.475 -1.05) (end -2.475 -0.975) (layer Dwgs.User) (width 0.01))
  (fp_line (start -2.475 -0.95) (end -2.475 -0.875) (layer Dwgs.User) (width 0.01))
  (fp_line (start -2.475 -0.85) (end -2.475 -0.775) (layer Dwgs.User) (width 0.01))
  (fp_line (start 2.4 -2.15) (end 2.475 -2.15) (layer Dwgs.User) (width 0.01))
  (fp_line (start 2.475 -2.15) (end 2.475 -2.075) (layer Dwgs.User) (width 0.01))
  (fp_line (start 2.475 -2.075) (end 2.4 -2.075) (layer Dwgs.User) (width 0.01))
  (fp_line (start 2.4 -2.15) (end 2.4 -2.075) (layer Dwgs.User) (width 0.01))
  (fp_line (start 2.4 -1.95) (end 2.475 -1.95) (layer Dwgs.User) (width 0.01))
  (fp_line (start 2.475 -1.95) (end 2.475 -1.875) (layer Dwgs.User) (width 0.01))
  (fp_line (start 2.475 -1.875) (end 2.4 -1.875) (layer Dwgs.User) (width 0.01))
  (fp_line (start 2.4 -1.95) (end 2.4 -1.875) (layer Dwgs.User) (width 0.01))
  (fp_line (start 2.4 -1.85) (end 2.4 -1.775) (layer Dwgs.User) (width 0.01))
  (fp_line (start 2.4 -1.75) (end 2.4 -1.675) (layer Dwgs.User) (width 0.01))
  (fp_line (start 2.4 -1.65) (end 2.4 -1.575) (layer Dwgs.User) (width 0.01))
  (fp_line (start 2.4 -1.55) (end 2.4 -1.475) (layer Dwgs.User) (width 0.01))
  (fp_line (start 2.4 -1.45) (end 2.4 -1.375) (layer Dwgs.User) (width 0.01))
  (fp_line (start 2.4 -1.35) (end 2.4 -1.275) (layer Dwgs.User) (width 0.01))
  (fp_line (start 2.4 -1.25) (end 2.4 -1.175) (layer Dwgs.User) (width 0.01))
  (fp_line (start 2.4 -1.15) (end 2.4 -1.075) (layer Dwgs.User) (width 0.01))
  (fp_line (start 2.4 -1.05) (end 2.4 -0.975) (layer Dwgs.User) (width 0.01))
  (fp_line (start 2.4 -0.95) (end 2.4 -0.875) (layer Dwgs.User) (width 0.01))
  (fp_line (start 2.4 -0.85) (end 2.4 -0.775) (layer Dwgs.User) (width 0.01))
  (fp_line (start 2.4 -0.75) (end 2.4 -0.675) (layer Dwgs.User) (width 0.01))
  (fp_line (start 2.4 -0.65) (end 2.4 -0.575) (layer Dwgs.User) (width 0.01))
  (fp_line (start 2.4 -0.55) (end 2.4 -0.475) (layer Dwgs.User) (width 0.01))
  (fp_line (start 2.475 -1.775) (end 2.4 -1.775) (layer Dwgs.User) (width 0.01))
  (fp_line (start 2.475 -1.675) (end 2.4 -1.675) (layer Dwgs.User) (width 0.01))
  (fp_line (start 2.475 -1.575) (end 2.4 -1.575) (layer Dwgs.User) (width 0.01))
  (fp_line (start 2.475 -1.475) (end 2.4 -1.475) (layer Dwgs.User) (width 0.01))
  (fp_line (start 2.475 -1.375) (end 2.4 -1.375) (layer Dwgs.User) (width 0.01))
  (fp_line (start 2.475 -1.275) (end 2.4 -1.275) (layer Dwgs.User) (width 0.01))
  (fp_line (start 2.475 -1.175) (end 2.4 -1.175) (layer Dwgs.User) (width 0.01))
  (fp_line (start 2.475 -1.075) (end 2.4 -1.075) (layer Dwgs.User) (width 0.01))
  (fp_line (start 2.475 -0.975) (end 2.4 -0.975) (layer Dwgs.User) (width 0.01))
  (fp_line (start 2.475 -0.875) (end 2.4 -0.875) (layer Dwgs.User) (width 0.01))
  (fp_line (start 2.475 -0.775) (end 2.4 -0.775) (layer Dwgs.User) (width 0.01))
  (fp_line (start 2.475 -0.675) (end 2.4 -0.675) (layer Dwgs.User) (width 0.01))
  (fp_line (start 2.475 -0.575) (end 2.4 -0.575) (layer Dwgs.User) (width 0.01))
  (fp_line (start 2.475 -0.475) (end 2.4 -0.475) (layer Dwgs.User) (width 0.01))
  (fp_line (start 2.4 -1.85) (end 2.475 -1.85) (layer Dwgs.User) (width 0.01))
  (fp_line (start 2.4 -1.75) (end 2.475 -1.75) (layer Dwgs.User) (width 0.01))
  (fp_line (start 2.4 -1.65) (end 2.475 -1.65) (layer Dwgs.User) (width 0.01))
  (fp_line (start 2.4 -1.55) (end 2.475 -1.55) (layer Dwgs.User) (width 0.01))
  (fp_line (start 2.4 -1.45) (end 2.475 -1.45) (layer Dwgs.User) (width 0.01))
  (fp_line (start 2.4 -1.35) (end 2.475 -1.35) (layer Dwgs.User) (width 0.01))
  (fp_line (start 2.4 -1.25) (end 2.475 -1.25) (layer Dwgs.User) (width 0.01))
  (fp_line (start 2.4 -1.15) (end 2.475 -1.15) (layer Dwgs.User) (width 0.01))
  (fp_line (start 2.4 -1.05) (end 2.475 -1.05) (layer Dwgs.User) (width 0.01))
  (fp_line (start 2.4 -0.95) (end 2.475 -0.95) (layer Dwgs.User) (width 0.01))
  (fp_line (start 2.4 -0.85) (end 2.475 -0.85) (layer Dwgs.User) (width 0.01))
  (fp_line (start 2.4 -0.75) (end 2.475 -0.75) (layer Dwgs.User) (width 0.01))
  (fp_line (start 2.4 -0.65) (end 2.475 -0.65) (layer Dwgs.User) (width 0.01))
  (fp_line (start 2.4 -0.55) (end 2.475 -0.55) (layer Dwgs.User) (width 0.01))
  (fp_line (start 2.475 -1.85) (end 2.475 -1.775) (layer Dwgs.User) (width 0.01))
  (fp_line (start 2.475 -1.75) (end 2.475 -1.675) (layer Dwgs.User) (width 0.01))
  (fp_line (start 2.475 -1.65) (end 2.475 -1.575) (layer Dwgs.User) (width 0.01))
  (fp_line (start 2.475 -1.55) (end 2.475 -1.475) (layer Dwgs.User) (width 0.01))
  (fp_line (start 2.475 -1.45) (end 2.475 -1.375) (layer Dwgs.User) (width 0.01))
  (fp_line (start 2.475 -1.35) (end 2.475 -1.275) (layer Dwgs.User) (width 0.01))
  (fp_line (start 2.475 -1.25) (end 2.475 -1.175) (layer Dwgs.User) (width 0.01))
  (fp_line (start 2.475 -1.15) (end 2.475 -1.075) (layer Dwgs.User) (width 0.01))
  (fp_line (start 2.475 -1.05) (end 2.475 -0.975) (layer Dwgs.User) (width 0.01))
  (fp_line (start 2.475 -0.95) (end 2.475 -0.875) (layer Dwgs.User) (width 0.01))
  (fp_line (start 2.475 -0.85) (end 2.475 -0.775) (layer Dwgs.User) (width 0.01))
  (fp_line (start 2.475 -0.75) (end 2.475 -0.675) (layer Dwgs.User) (width 0.01))
  (fp_line (start 2.475 -0.65) (end 2.475 -0.575) (layer Dwgs.User) (width 0.01))
  (fp_line (start 2.475 -0.55) (end 2.475 -0.475) (layer Dwgs.User) (width 0.01))
  (fp_line (start 2.3 1.98) (end 2.375 1.98) (layer Dwgs.User) (width 0.01))
  (fp_line (start 2.375 1.98) (end 2.375 2.055) (layer Dwgs.User) (width 0.01))
  (fp_line (start 2.375 2.055) (end 2.3 2.055) (layer Dwgs.User) (width 0.01))
  (fp_line (start 2.3 1.98) (end 2.3 2.055) (layer Dwgs.User) (width 0.01))
  (fp_line (start -2.325 2.385) (end -2.4 2.385) (layer Dwgs.User) (width 0.01))
  (fp_line (start -2.4 2.245) (end -2.4 2.385) (layer Dwgs.User) (width 0.01))
  (fp_line (start -2.325 2.245) (end -2.325 2.385) (layer Dwgs.User) (width 0.01))
  (fp_line (start -2.4 2.245) (end -2.325 2.245) (layer Dwgs.User) (width 0.01))
  (fp_line (start -2.3 2.245) (end -2.3 2.385) (layer Dwgs.User) (width 0.01))
  (fp_line (start -2.2 2.245) (end -2.2 2.385) (layer Dwgs.User) (width 0.01))
  (fp_line (start -2.1 2.245) (end -2.1 2.385) (layer Dwgs.User) (width 0.01))
  (fp_line (start -2 2.245) (end -2 2.385) (layer Dwgs.User) (width 0.01))
  (fp_line (start -1.9 2.245) (end -1.9 2.385) (layer Dwgs.User) (width 0.01))
  (fp_line (start -1.8 2.245) (end -1.8 2.385) (layer Dwgs.User) (width 0.01))
  (fp_line (start -1.7 2.245) (end -1.7 2.385) (layer Dwgs.User) (width 0.01))
  (fp_line (start -1.6 2.245) (end -1.6 2.385) (layer Dwgs.User) (width 0.01))
  (fp_line (start -1.5 2.245) (end -1.5 2.385) (layer Dwgs.User) (width 0.01))
  (fp_line (start -1.4 2.245) (end -1.4 2.385) (layer Dwgs.User) (width 0.01))
  (fp_line (start -1.3 2.245) (end -1.3 2.385) (layer Dwgs.User) (width 0.01))
  (fp_line (start -1.2 2.245) (end -1.2 2.385) (layer Dwgs.User) (width 0.01))
  (fp_line (start -1.1 2.245) (end -1.1 2.385) (layer Dwgs.User) (width 0.01))
  (fp_line (start -1 2.245) (end -1 2.385) (layer Dwgs.User) (width 0.01))
  (fp_line (start -0.9 2.245) (end -0.9 2.385) (layer Dwgs.User) (width 0.01))
  (fp_line (start -0.8 2.245) (end -0.8 2.385) (layer Dwgs.User) (width 0.01))
  (fp_line (start -0.7 2.245) (end -0.7 2.385) (layer Dwgs.User) (width 0.01))
  (fp_line (start -0.6 2.245) (end -0.6 2.385) (layer Dwgs.User) (width 0.01))
  (fp_line (start -0.5 2.245) (end -0.5 2.385) (layer Dwgs.User) (width 0.01))
  (fp_line (start -0.4 2.245) (end -0.4 2.385) (layer Dwgs.User) (width 0.01))
  (fp_line (start -0.3 2.245) (end -0.3 2.385) (layer Dwgs.User) (width 0.01))
  (fp_line (start -0.2 2.245) (end -0.2 2.385) (layer Dwgs.User) (width 0.01))
  (fp_line (start -0.1 2.245) (end -0.1 2.385) (layer Dwgs.User) (width 0.01))
  (fp_line (start 0 2.245) (end 0 2.385) (layer Dwgs.User) (width 0.01))
  (fp_line (start 0.1 2.245) (end 0.1 2.385) (layer Dwgs.User) (width 0.01))
  (fp_line (start 0.2 2.245) (end 0.2 2.385) (layer Dwgs.User) (width 0.01))
  (fp_line (start 0.3 2.245) (end 0.3 2.385) (layer Dwgs.User) (width 0.01))
  (fp_line (start 0.4 2.245) (end 0.4 2.385) (layer Dwgs.User) (width 0.01))
  (fp_line (start 0.5 2.245) (end 0.5 2.385) (layer Dwgs.User) (width 0.01))
  (fp_line (start 0.6 2.245) (end 0.6 2.385) (layer Dwgs.User) (width 0.01))
  (fp_line (start 0.7 2.245) (end 0.7 2.385) (layer Dwgs.User) (width 0.01))
  (fp_line (start 0.8 2.245) (end 0.8 2.385) (layer Dwgs.User) (width 0.01))
  (fp_line (start 0.9 2.245) (end 0.9 2.385) (layer Dwgs.User) (width 0.01))
  (fp_line (start 1 2.245) (end 1 2.385) (layer Dwgs.User) (width 0.01))
  (fp_line (start 1.1 2.245) (end 1.1 2.385) (layer Dwgs.User) (width 0.01))
  (fp_line (start 1.2 2.245) (end 1.2 2.385) (layer Dwgs.User) (width 0.01))
  (fp_line (start 1.3 2.245) (end 1.3 2.385) (layer Dwgs.User) (width 0.01))
  (fp_line (start 1.4 2.245) (end 1.4 2.385) (layer Dwgs.User) (width 0.01))
  (fp_line (start 1.5 2.245) (end 1.5 2.385) (layer Dwgs.User) (width 0.01))
  (fp_line (start 1.6 2.245) (end 1.6 2.385) (layer Dwgs.User) (width 0.01))
  (fp_line (start 1.7 2.245) (end 1.7 2.385) (layer Dwgs.User) (width 0.01))
  (fp_line (start 1.8 2.245) (end 1.8 2.385) (layer Dwgs.User) (width 0.01))
  (fp_line (start 1.9 2.245) (end 1.9 2.385) (layer Dwgs.User) (width 0.01))
  (fp_line (start 2 2.245) (end 2 2.385) (layer Dwgs.User) (width 0.01))
  (fp_line (start 2.1 2.245) (end 2.1 2.385) (layer Dwgs.User) (width 0.01))
  (fp_line (start 2.2 2.245) (end 2.2 2.385) (layer Dwgs.User) (width 0.01))
  (fp_line (start 2.3 2.245) (end 2.3 2.385) (layer Dwgs.User) (width 0.01))
  (fp_line (start -2.225 2.245) (end -2.225 2.385) (layer Dwgs.User) (width 0.01))
  (fp_line (start -2.125 2.245) (end -2.125 2.385) (layer Dwgs.User) (width 0.01))
  (fp_line (start -2.025 2.245) (end -2.025 2.385) (layer Dwgs.User) (width 0.01))
  (fp_line (start -1.925 2.245) (end -1.925 2.385) (layer Dwgs.User) (width 0.01))
  (fp_line (start -1.825 2.245) (end -1.825 2.385) (layer Dwgs.User) (width 0.01))
  (fp_line (start -1.725 2.245) (end -1.725 2.385) (layer Dwgs.User) (width 0.01))
  (fp_line (start -1.625 2.245) (end -1.625 2.385) (layer Dwgs.User) (width 0.01))
  (fp_line (start -1.525 2.245) (end -1.525 2.385) (layer Dwgs.User) (width 0.01))
  (fp_line (start -1.425 2.245) (end -1.425 2.385) (layer Dwgs.User) (width 0.01))
  (fp_line (start -1.325 2.245) (end -1.325 2.385) (layer Dwgs.User) (width 0.01))
  (fp_line (start -1.225 2.245) (end -1.225 2.385) (layer Dwgs.User) (width 0.01))
  (fp_line (start -1.125 2.245) (end -1.125 2.385) (layer Dwgs.User) (width 0.01))
  (fp_line (start -1.025 2.245) (end -1.025 2.385) (layer Dwgs.User) (width 0.01))
  (fp_line (start -0.925 2.245) (end -0.925 2.385) (layer Dwgs.User) (width 0.01))
  (fp_line (start -0.825 2.245) (end -0.825 2.385) (layer Dwgs.User) (width 0.01))
  (fp_line (start -0.725 2.245) (end -0.725 2.385) (layer Dwgs.User) (width 0.01))
  (fp_line (start -0.625 2.245) (end -0.625 2.385) (layer Dwgs.User) (width 0.01))
  (fp_line (start -0.525 2.245) (end -0.525 2.385) (layer Dwgs.User) (width 0.01))
  (fp_line (start -0.425 2.245) (end -0.425 2.385) (layer Dwgs.User) (width 0.01))
  (fp_line (start -0.325 2.245) (end -0.325 2.385) (layer Dwgs.User) (width 0.01))
  (fp_line (start -0.225 2.245) (end -0.225 2.385) (layer Dwgs.User) (width 0.01))
  (fp_line (start -0.125 2.245) (end -0.125 2.385) (layer Dwgs.User) (width 0.01))
  (fp_line (start -0.025 2.245) (end -0.025 2.385) (layer Dwgs.User) (width 0.01))
  (fp_line (start 0.075 2.245) (end 0.075 2.385) (layer Dwgs.User) (width 0.01))
  (fp_line (start 0.175 2.245) (end 0.175 2.385) (layer Dwgs.User) (width 0.01))
  (fp_line (start 0.275 2.245) (end 0.275 2.385) (layer Dwgs.User) (width 0.01))
  (fp_line (start 0.375 2.245) (end 0.375 2.385) (layer Dwgs.User) (width 0.01))
  (fp_line (start 0.475 2.245) (end 0.475 2.385) (layer Dwgs.User) (width 0.01))
  (fp_line (start 0.575 2.245) (end 0.575 2.385) (layer Dwgs.User) (width 0.01))
  (fp_line (start 0.675 2.245) (end 0.675 2.385) (layer Dwgs.User) (width 0.01))
  (fp_line (start 0.775 2.245) (end 0.775 2.385) (layer Dwgs.User) (width 0.01))
  (fp_line (start 0.875 2.245) (end 0.875 2.385) (layer Dwgs.User) (width 0.01))
  (fp_line (start 0.975 2.245) (end 0.975 2.385) (layer Dwgs.User) (width 0.01))
  (fp_line (start 1.075 2.245) (end 1.075 2.385) (layer Dwgs.User) (width 0.01))
  (fp_line (start 1.175 2.245) (end 1.175 2.385) (layer Dwgs.User) (width 0.01))
  (fp_line (start 1.275 2.245) (end 1.275 2.385) (layer Dwgs.User) (width 0.01))
  (fp_line (start 1.375 2.245) (end 1.375 2.385) (layer Dwgs.User) (width 0.01))
  (fp_line (start 1.475 2.245) (end 1.475 2.385) (layer Dwgs.User) (width 0.01))
  (fp_line (start 1.575 2.245) (end 1.575 2.385) (layer Dwgs.User) (width 0.01))
  (fp_line (start 1.675 2.245) (end 1.675 2.385) (layer Dwgs.User) (width 0.01))
  (fp_line (start 1.775 2.245) (end 1.775 2.385) (layer Dwgs.User) (width 0.01))
  (fp_line (start 1.875 2.245) (end 1.875 2.385) (layer Dwgs.User) (width 0.01))
  (fp_line (start 1.975 2.245) (end 1.975 2.385) (layer Dwgs.User) (width 0.01))
  (fp_line (start 2.075 2.245) (end 2.075 2.385) (layer Dwgs.User) (width 0.01))
  (fp_line (start 2.175 2.245) (end 2.175 2.385) (layer Dwgs.User) (width 0.01))
  (fp_line (start 2.275 2.245) (end 2.275 2.385) (layer Dwgs.User) (width 0.01))
  (fp_line (start 2.375 2.245) (end 2.375 2.385) (layer Dwgs.User) (width 0.01))
  (fp_line (start -2.3 2.245) (end -2.225 2.245) (layer Dwgs.User) (width 0.01))
  (fp_line (start -2.2 2.245) (end -2.125 2.245) (layer Dwgs.User) (width 0.01))
  (fp_line (start -2.1 2.245) (end -2.025 2.245) (layer Dwgs.User) (width 0.01))
  (fp_line (start -2 2.245) (end -1.925 2.245) (layer Dwgs.User) (width 0.01))
  (fp_line (start -1.9 2.245) (end -1.825 2.245) (layer Dwgs.User) (width 0.01))
  (fp_line (start -1.8 2.245) (end -1.725 2.245) (layer Dwgs.User) (width 0.01))
  (fp_line (start -1.7 2.245) (end -1.625 2.245) (layer Dwgs.User) (width 0.01))
  (fp_line (start -1.6 2.245) (end -1.525 2.245) (layer Dwgs.User) (width 0.01))
  (fp_line (start -1.5 2.245) (end -1.425 2.245) (layer Dwgs.User) (width 0.01))
  (fp_line (start -1.4 2.245) (end -1.325 2.245) (layer Dwgs.User) (width 0.01))
  (fp_line (start -1.3 2.245) (end -1.225 2.245) (layer Dwgs.User) (width 0.01))
  (fp_line (start -1.2 2.245) (end -1.125 2.245) (layer Dwgs.User) (width 0.01))
  (fp_line (start -1.1 2.245) (end -1.025 2.245) (layer Dwgs.User) (width 0.01))
  (fp_line (start -1 2.245) (end -0.925 2.245) (layer Dwgs.User) (width 0.01))
  (fp_line (start -0.9 2.245) (end -0.825 2.245) (layer Dwgs.User) (width 0.01))
  (fp_line (start -0.8 2.245) (end -0.725 2.245) (layer Dwgs.User) (width 0.01))
  (fp_line (start -0.7 2.245) (end -0.625 2.245) (layer Dwgs.User) (width 0.01))
  (fp_line (start -0.6 2.245) (end -0.525 2.245) (layer Dwgs.User) (width 0.01))
  (fp_line (start -0.5 2.245) (end -0.425 2.245) (layer Dwgs.User) (width 0.01))
  (fp_line (start -0.4 2.245) (end -0.325 2.245) (layer Dwgs.User) (width 0.01))
  (fp_line (start -0.3 2.245) (end -0.225 2.245) (layer Dwgs.User) (width 0.01))
  (fp_line (start -0.2 2.245) (end -0.125 2.245) (layer Dwgs.User) (width 0.01))
  (fp_line (start -0.1 2.245) (end -0.025 2.245) (layer Dwgs.User) (width 0.01))
  (fp_line (start 0 2.245) (end 0.075 2.245) (layer Dwgs.User) (width 0.01))
  (fp_line (start 0.1 2.245) (end 0.175 2.245) (layer Dwgs.User) (width 0.01))
  (fp_line (start 0.2 2.245) (end 0.275 2.245) (layer Dwgs.User) (width 0.01))
  (fp_line (start 0.3 2.245) (end 0.375 2.245) (layer Dwgs.User) (width 0.01))
  (fp_line (start 0.4 2.245) (end 0.475 2.245) (layer Dwgs.User) (width 0.01))
  (fp_line (start 0.5 2.245) (end 0.575 2.245) (layer Dwgs.User) (width 0.01))
  (fp_line (start 0.6 2.245) (end 0.675 2.245) (layer Dwgs.User) (width 0.01))
  (fp_line (start 0.7 2.245) (end 0.775 2.245) (layer Dwgs.User) (width 0.01))
  (fp_line (start 0.8 2.245) (end 0.875 2.245) (layer Dwgs.User) (width 0.01))
  (fp_line (start 0.9 2.245) (end 0.975 2.245) (layer Dwgs.User) (width 0.01))
  (fp_line (start 1 2.245) (end 1.075 2.245) (layer Dwgs.User) (width 0.01))
  (fp_line (start 1.1 2.245) (end 1.175 2.245) (layer Dwgs.User) (width 0.01))
  (fp_line (start 1.2 2.245) (end 1.275 2.245) (layer Dwgs.User) (width 0.01))
  (fp_line (start 1.3 2.245) (end 1.375 2.245) (layer Dwgs.User) (width 0.01))
  (fp_line (start 1.4 2.245) (end 1.475 2.245) (layer Dwgs.User) (width 0.01))
  (fp_line (start 1.5 2.245) (end 1.575 2.245) (layer Dwgs.User) (width 0.01))
  (fp_line (start 1.6 2.245) (end 1.675 2.245) (layer Dwgs.User) (width 0.01))
  (fp_line (start 1.7 2.245) (end 1.775 2.245) (layer Dwgs.User) (width 0.01))
  (fp_line (start 1.8 2.245) (end 1.875 2.245) (layer Dwgs.User) (width 0.01))
  (fp_line (start 1.9 2.245) (end 1.975 2.245) (layer Dwgs.User) (width 0.01))
  (fp_line (start 2 2.245) (end 2.075 2.245) (layer Dwgs.User) (width 0.01))
  (fp_line (start 2.1 2.245) (end 2.175 2.245) (layer Dwgs.User) (width 0.01))
  (fp_line (start 2.2 2.245) (end 2.275 2.245) (layer Dwgs.User) (width 0.01))
  (fp_line (start 2.3 2.245) (end 2.375 2.245) (layer Dwgs.User) (width 0.01))
  (fp_line (start -2.225 2.385) (end -2.3 2.385) (layer Dwgs.User) (width 0.01))
  (fp_line (start -2.125 2.385) (end -2.2 2.385) (layer Dwgs.User) (width 0.01))
  (fp_line (start -2.025 2.385) (end -2.1 2.385) (layer Dwgs.User) (width 0.01))
  (fp_line (start -1.925 2.385) (end -2 2.385) (layer Dwgs.User) (width 0.01))
  (fp_line (start -1.825 2.385) (end -1.9 2.385) (layer Dwgs.User) (width 0.01))
  (fp_line (start -1.725 2.385) (end -1.8 2.385) (layer Dwgs.User) (width 0.01))
  (fp_line (start -1.625 2.385) (end -1.7 2.385) (layer Dwgs.User) (width 0.01))
  (fp_line (start -1.525 2.385) (end -1.6 2.385) (layer Dwgs.User) (width 0.01))
  (fp_line (start -1.425 2.385) (end -1.5 2.385) (layer Dwgs.User) (width 0.01))
  (fp_line (start -1.325 2.385) (end -1.4 2.385) (layer Dwgs.User) (width 0.01))
  (fp_line (start -1.225 2.385) (end -1.3 2.385) (layer Dwgs.User) (width 0.01))
  (fp_line (start -1.125 2.385) (end -1.2 2.385) (layer Dwgs.User) (width 0.01))
  (fp_line (start -1.025 2.385) (end -1.1 2.385) (layer Dwgs.User) (width 0.01))
  (fp_line (start -0.925 2.385) (end -1 2.385) (layer Dwgs.User) (width 0.01))
  (fp_line (start -0.825 2.385) (end -0.9 2.385) (layer Dwgs.User) (width 0.01))
  (fp_line (start -0.725 2.385) (end -0.8 2.385) (layer Dwgs.User) (width 0.01))
  (fp_line (start -0.625 2.385) (end -0.7 2.385) (layer Dwgs.User) (width 0.01))
  (fp_line (start -0.525 2.385) (end -0.6 2.385) (layer Dwgs.User) (width 0.01))
  (fp_line (start -0.425 2.385) (end -0.5 2.385) (layer Dwgs.User) (width 0.01))
  (fp_line (start -0.325 2.385) (end -0.4 2.385) (layer Dwgs.User) (width 0.01))
  (fp_line (start -0.225 2.385) (end -0.3 2.385) (layer Dwgs.User) (width 0.01))
  (fp_line (start -0.125 2.385) (end -0.2 2.385) (layer Dwgs.User) (width 0.01))
  (fp_line (start -0.025 2.385) (end -0.1 2.385) (layer Dwgs.User) (width 0.01))
  (fp_line (start 0.075 2.385) (end 0 2.385) (layer Dwgs.User) (width 0.01))
  (fp_line (start 0.175 2.385) (end 0.1 2.385) (layer Dwgs.User) (width 0.01))
  (fp_line (start 0.275 2.385) (end 0.2 2.385) (layer Dwgs.User) (width 0.01))
  (fp_line (start 0.375 2.385) (end 0.3 2.385) (layer Dwgs.User) (width 0.01))
  (fp_line (start 0.475 2.385) (end 0.4 2.385) (layer Dwgs.User) (width 0.01))
  (fp_line (start 0.575 2.385) (end 0.5 2.385) (layer Dwgs.User) (width 0.01))
  (fp_line (start 0.675 2.385) (end 0.6 2.385) (layer Dwgs.User) (width 0.01))
  (fp_line (start 0.775 2.385) (end 0.7 2.385) (layer Dwgs.User) (width 0.01))
  (fp_line (start 0.875 2.385) (end 0.8 2.385) (layer Dwgs.User) (width 0.01))
  (fp_line (start 0.975 2.385) (end 0.9 2.385) (layer Dwgs.User) (width 0.01))
  (fp_line (start 1.075 2.385) (end 1 2.385) (layer Dwgs.User) (width 0.01))
  (fp_line (start 1.175 2.385) (end 1.1 2.385) (layer Dwgs.User) (width 0.01))
  (fp_line (start 1.275 2.385) (end 1.2 2.385) (layer Dwgs.User) (width 0.01))
  (fp_line (start 1.375 2.385) (end 1.3 2.385) (layer Dwgs.User) (width 0.01))
  (fp_line (start 1.475 2.385) (end 1.4 2.385) (layer Dwgs.User) (width 0.01))
  (fp_line (start 1.575 2.385) (end 1.5 2.385) (layer Dwgs.User) (width 0.01))
  (fp_line (start 1.675 2.385) (end 1.6 2.385) (layer Dwgs.User) (width 0.01))
  (fp_line (start 1.775 2.385) (end 1.7 2.385) (layer Dwgs.User) (width 0.01))
  (fp_line (start 1.875 2.385) (end 1.8 2.385) (layer Dwgs.User) (width 0.01))
  (fp_line (start 1.975 2.385) (end 1.9 2.385) (layer Dwgs.User) (width 0.01))
  (fp_line (start 2.075 2.385) (end 2 2.385) (layer Dwgs.User) (width 0.01))
  (fp_line (start 2.175 2.385) (end 2.1 2.385) (layer Dwgs.User) (width 0.01))
  (fp_line (start 2.275 2.385) (end 2.2 2.385) (layer Dwgs.User) (width 0.01))
  (fp_line (start 2.375 2.385) (end 2.3 2.385) (layer Dwgs.User) (width 0.01))
  (fp_line (start -2.5 -2.95) (end -3 -2.95) (layer F.Cu) (width 0.1))
  (fp_line (start -3 -2.95) (end -3 -2.45) (layer F.Cu) (width 0.1))
  (fp_line (start 2.5 -2.95) (end 3 -2.95) (layer F.Cu) (width 0.1))
  (fp_line (start 3 -2.95) (end 3 -2.45) (layer F.Cu) (width 0.1))
  (fp_line (start -3 2.42) (end -3 2.92) (layer F.Cu) (width 0.1))
  (fp_line (start -3 2.92) (end -2.5 2.92) (layer F.Cu) (width 0.1))
  (fp_line (start 3 2.42) (end 3 2.92) (layer F.Cu) (width 0.1))
  (fp_line (start 2.5 2.92) (end 3 2.92) (layer F.Cu) (width 0.1))
  (fp_line (start 8.5 2) (end 6.375 2) (layer F.Cu) (width 0.1))
  (fp_line (start -2.45 -5.55) (end -2.45 -3.95) (layer F.Cu) (width 0.1))
  (fp_line (start 2.45 -5.55) (end 2.45 -3.95) (layer F.Cu) (width 0.1))
  (fp_text user 24 (at -0.05 2.15 90) (layer Dwgs.User)
    (effects (font (size 0.05 0.05) (thickness 0.005)))
  )
  (fp_text user 1 (at -2.35 2.15 90) (layer Dwgs.User)
    (effects (font (size 0.05 0.05) (thickness 0.001)))
  )
  (fp_text user 48 (at 2.35 2.15 90) (layer Dwgs.User)
    (effects (font (size 0.05 0.05) (thickness 0.001)))
  )
  (fp_text user 78 (at 2.35 1.9) (layer Dwgs.User)
    (effects (font (size 0.05 0.05) (thickness 0.001)))
  )
  (fp_text user 62 (at 2.4 -2.2) (layer Dwgs.User)
    (effects (font (size 0.05 0.05) (thickness 0.001)))
  )
  (fp_text user 77 (at 2.4 -0.4) (layer Dwgs.User)
    (effects (font (size 0.05 0.05) (thickness 0.001)))
  )
  (fp_text user 49 (at -2.3 -2.2) (layer Dwgs.User)
    (effects (font (size 0.05 0.05) (thickness 0.001)))
  )
  (fp_text user 61 (at -2.4 -0.7) (layer Dwgs.User)
    (effects (font (size 0.05 0.05) (thickness 0.001)))
  )
  (pad 49 connect rect (at -2.45 -5.8) (size 0.1 0.5) (layers F.Cu F.Mask))
  (pad 62 connect rect (at 2.45 -5.8 180) (size 0.1 0.5) (layers F.Cu F.Mask))
  (pad 78 connect rect (at 8.75 2 270) (size 0.1 0.5) (layers F.Cu F.Mask))
  (pad 1 connect rect (at -5.842 9.398) (size 0.1 0.5) (layers F.Cu F.Mask)
    (solder_mask_margin 0.1) (clearance 0.1))
  (pad 2 connect rect (at -5.461 9.398) (size 0.1 0.5) (layers F.Cu F.Mask)
    (solder_mask_margin 0.1) (clearance 0.1))
  (pad 3 connect rect (at -5.08 9.398) (size 0.1 0.5) (layers F.Cu F.Mask)
    (solder_mask_margin 0.1) (clearance 0.1))
  (pad 4 connect rect (at -4.699 9.398) (size 0.1 0.5) (layers F.Cu F.Mask)
    (solder_mask_margin 0.1) (clearance 0.1))
  (pad 5 connect rect (at -4.318 9.398) (size 0.1 0.5) (layers F.Cu F.Mask)
    (solder_mask_margin 0.1) (clearance 0.1))
  (pad 6 connect rect (at -3.937 9.398) (size 0.1 0.5) (layers F.Cu F.Mask)
    (solder_mask_margin 0.1) (clearance 0.1))
  (pad 7 connect rect (at -3.556 9.398) (size 0.1 0.5) (layers F.Cu F.Mask)
    (solder_mask_margin 0.1) (clearance 0.1))
  (pad 8 connect rect (at -3.175 9.398) (size 0.1 0.5) (layers F.Cu F.Mask)
    (solder_mask_margin 0.1) (clearance 0.1))
  (pad 15 connect rect (at -3.556 8.509) (size 0.1 0.5) (layers F.Cu F.Mask)
    (solder_mask_margin 0.1) (clearance 0.1))
  (pad 9 connect rect (at -2.794 9.398) (size 0.1 0.5) (layers F.Cu F.Mask)
    (solder_mask_margin 0.1) (clearance 0.1))
  (pad 11 connect rect (at -2.032 9.398) (size 0.1 0.5) (layers F.Cu F.Mask)
    (solder_mask_margin 0.1) (clearance 0.1))
  (pad 12 connect rect (at -4.699 8.509) (size 0.1 0.5) (layers F.Cu F.Mask)
    (solder_mask_margin 0.1) (clearance 0.1))
  (pad 16 connect rect (at -3.175 8.509) (size 0.1 0.5) (layers F.Cu F.Mask)
    (solder_mask_margin 0.1) (clearance 0.1))
  (pad 10 connect rect (at -2.413 9.398) (size 0.1 0.5) (layers F.Cu F.Mask)
    (solder_mask_margin 0.1) (clearance 0.1))
  (pad 13 connect rect (at -4.318 8.509) (size 0.1 0.5) (layers F.Cu F.Mask)
    (solder_mask_margin 0.1) (clearance 0.1))
  (pad 14 connect rect (at -3.937 8.509) (size 0.1 0.5) (layers F.Cu F.Mask)
    (solder_mask_margin 0.1) (clearance 0.1))
  (pad 18 connect rect (at -1.651 9.398) (size 0.1 0.5) (layers F.Cu F.Mask)
    (solder_mask_margin 0.1) (clearance 0.1))
  (pad 19 connect rect (at -1.27 9.398) (size 0.1 0.5) (layers F.Cu F.Mask)
    (solder_mask_margin 0.1) (clearance 0.1))
  (pad 21 connect rect (at -0.508 9.398) (size 0.1 0.5) (layers F.Cu F.Mask)
    (solder_mask_margin 0.1) (clearance 0.1))
  (pad 24 connect rect (at -0.127 9.398) (size 0.1 0.5) (layers F.Cu F.Mask)
    (solder_mask_margin 0.1) (clearance 0.1))
  (pad 17 connect rect (at -2.794 8.509) (size 0.1 0.5) (layers F.Cu F.Mask)
    (solder_mask_margin 0.1) (clearance 0.1))
  (pad 23 connect rect (at -0.254 8.509) (size 0.1 0.5) (layers F.Cu F.Mask)
    (solder_mask_margin 0.1) (clearance 0.1))
  (pad 20 connect rect (at -0.889 9.398) (size 0.1 0.5) (layers F.Cu F.Mask)
    (solder_mask_margin 0.1) (clearance 0.1))
  (pad 22 connect rect (at -0.635 8.509) (size 0.1 0.5) (layers F.Cu F.Mask)
    (solder_mask_margin 0.1) (clearance 0.1))
  (pad 29 connect rect (at 1.016 9.398) (size 0.1 0.5) (layers F.Cu F.Mask)
    (solder_mask_margin 0.1) (clearance 0.1))
  (pad 26 connect rect (at 0.508 8.509) (size 0.1 0.5) (layers F.Cu F.Mask)
    (solder_mask_margin 0.1) (clearance 0.1))
  (pad 27 connect rect (at 0.254 9.398) (size 0.1 0.5) (layers F.Cu F.Mask)
    (solder_mask_margin 0.1) (clearance 0.1))
  (pad 32 connect rect (at 2.921 8.509) (size 0.1 0.5) (layers F.Cu F.Mask)
    (solder_mask_margin 0.1) (clearance 0.1))
  (pad 25 connect rect (at 0.127 8.509) (size 0.1 0.5) (layers F.Cu F.Mask)
    (solder_mask_margin 0.1) (clearance 0.1))
  (pad 31 connect rect (at 1.778 9.398) (size 0.1 0.5) (layers F.Cu F.Mask)
    (solder_mask_margin 0.1) (clearance 0.1))
  (pad 28 connect rect (at 0.635 9.398) (size 0.1 0.5) (layers F.Cu F.Mask)
    (solder_mask_margin 0.1) (clearance 0.1))
  (pad 30 connect rect (at 1.397 9.398) (size 0.1 0.5) (layers F.Cu F.Mask)
    (solder_mask_margin 0.1) (clearance 0.1))
  (pad 34 connect rect (at 3.683 8.509) (size 0.1 0.5) (layers F.Cu F.Mask)
    (solder_mask_margin 0.1) (clearance 0.1))
  (pad 35 connect rect (at 4.064 8.509) (size 0.1 0.5) (layers F.Cu F.Mask)
    (solder_mask_margin 0.1) (clearance 0.1))
  (pad 40 connect rect (at 2.921 9.398) (size 0.1 0.5) (layers F.Cu F.Mask)
    (solder_mask_margin 0.1) (clearance 0.1))
  (pad 33 connect rect (at 3.302 8.509) (size 0.1 0.5) (layers F.Cu F.Mask)
    (solder_mask_margin 0.1) (clearance 0.1))
  (pad 39 connect rect (at 2.54 9.398) (size 0.1 0.5) (layers F.Cu F.Mask)
    (solder_mask_margin 0.1) (clearance 0.1))
  (pad 36 connect rect (at 4.445 8.509) (size 0.1 0.5) (layers F.Cu F.Mask)
    (solder_mask_margin 0.1) (clearance 0.1))
  (pad 38 connect rect (at 2.159 9.398) (size 0.1 0.5) (layers F.Cu F.Mask)
    (solder_mask_margin 0.1) (clearance 0.1))
  (pad 37 connect rect (at 4.826 8.509) (size 0.1 0.5) (layers F.Cu F.Mask)
    (solder_mask_margin 0.1) (clearance 0.1))
  (pad 44 connect rect (at 4.445 9.398) (size 0.1 0.5) (layers F.Cu F.Mask)
    (solder_mask_margin 0.1) (clearance 0.1))
  (pad 43 connect rect (at 4.064 9.398) (size 0.1 0.5) (layers F.Cu F.Mask)
    (solder_mask_margin 0.1) (clearance 0.1))
  (pad 42 connect rect (at 3.683 9.398) (size 0.1 0.5) (layers F.Cu F.Mask)
    (solder_mask_margin 0.1) (clearance 0.1))
  (pad 41 connect rect (at 3.302 9.398) (size 0.1 0.5) (layers F.Cu F.Mask)
    (solder_mask_margin 0.1) (clearance 0.1))
  (pad 48 connect rect (at 5.969 9.398) (size 0.1 0.5) (layers F.Cu F.Mask)
    (solder_mask_margin 0.1) (clearance 0.1))
  (pad 47 connect rect (at 5.588 9.398) (size 0.1 0.5) (layers F.Cu F.Mask)
    (solder_mask_margin 0.1) (clearance 0.1))
  (pad 46 connect rect (at 5.207 9.398) (size 0.1 0.5) (layers F.Cu F.Mask)
    (solder_mask_margin 0.1) (clearance 0.1))
  (pad 45 connect rect (at 4.826 9.398) (size 0.1 0.5) (layers F.Cu F.Mask)
    (solder_mask_margin 0.1) (clearance 0.1))
  (pad 70 connect rect (at 8.877 -1.185502 270) (size 0.1 0.5) (layers F.Cu F.Mask))
  (pad 77 connect rect (at 8.877 0.804 270) (size 0.1 0.5) (layers F.Cu F.Mask))
  (pad 76 connect rect (at 8.877 0.519782 270) (size 0.1 0.5) (layers F.Cu F.Mask))
  (pad 67 connect rect (at 8.877 -2.038144 270) (size 0.1 0.5) (layers F.Cu F.Mask))
  (pad 68 connect rect (at 8.877 -1.75393 270) (size 0.1 0.5) (layers F.Cu F.Mask))
  (pad 66 connect rect (at 8.877 -2.322358 270) (size 0.1 0.5) (layers F.Cu F.Mask))
  (pad 73 connect rect (at 8.877 -0.33286 270) (size 0.1 0.5) (layers F.Cu F.Mask))
  (pad 65 connect rect (at 8.877 -2.606572 270) (size 0.1 0.5) (layers F.Cu F.Mask))
  (pad 64 connect rect (at 8.877 -2.890786 270) (size 0.1 0.5) (layers F.Cu F.Mask))
  (pad 74 connect rect (at 8.877 -0.048646 270) (size 0.1 0.5) (layers F.Cu F.Mask))
  (pad 75 connect rect (at 8.877 0.235568 270) (size 0.1 0.5) (layers F.Cu F.Mask))
  (pad 71 connect rect (at 8.877 -0.901288 270) (size 0.1 0.5) (layers F.Cu F.Mask))
  (pad 72 connect rect (at 8.877 -0.617074 270) (size 0.1 0.5) (layers F.Cu F.Mask))
  (pad 69 connect rect (at 8.877 -1.469716 270) (size 0.1 0.5) (layers F.Cu F.Mask))
  (pad 63 connect rect (at 8.89 -3.175 270) (size 0.1 0.5) (layers F.Cu F.Mask))
  (pad 51 connect rect (at -8.877 -2.745364 90) (size 0.1 0.5) (layers F.Cu F.Mask))
  (pad 52 connect rect (at -8.877 -2.442728 90) (size 0.1 0.5) (layers F.Cu F.Mask))
  (pad 53 connect rect (at -8.877 -2.140092 90) (size 0.1 0.5) (layers F.Cu F.Mask))
  (pad 54 connect rect (at -8.877 -1.837456 90) (size 0.1 0.5) (layers F.Cu F.Mask))
  (pad 58 connect rect (at -8.877 -0.626912 90) (size 0.1 0.5) (layers F.Cu F.Mask))
  (pad 57 connect rect (at -8.877 -0.929548 90) (size 0.1 0.5) (layers F.Cu F.Mask))
  (pad 56 connect rect (at -8.877 -1.232184 90) (size 0.1 0.5) (layers F.Cu F.Mask))
  (pad 60 connect rect (at -8.877 -0.02164 90) (size 0.1 0.5) (layers F.Cu F.Mask))
  (pad 61 connect rect (at -8.877 0.281 90) (size 0.1 0.5) (layers F.Cu F.Mask))
  (pad 59 connect rect (at -8.877 -0.324276 90) (size 0.1 0.5) (layers F.Cu F.Mask))
  (pad 50 connect rect (at -8.877 -3.048 90) (size 0.1 0.5) (layers F.Cu F.Mask))
  (pad 55 connect rect (at -8.877 -1.53482 90) (size 0.1 0.5) (layers F.Cu F.Mask))
)
